[
  {
    "id": "1",
    "stamp_node":"#546650632",
    "stakeholder_type": "Local Government - Central",
    "type": "SMETS",
    "organization_name": "Indonesian President's Office",
    "individual_name": "Joko Widodo",
    "title_name": "President of Indonesia",
    "birth_date": "21-Jun-61",
    "address": "Jl. Istana Merdeka No.17-18, RT.2/RW.3, Gambir, Kota Jakarta Pusat, Daerah Khusus Ibukota Jakarta 10110",
    "phone_number": "+6221 3863777",
    "email": "",
    "spouse_name": "Iriana",
    "children_name_1": "Gibran Rakabuming Raka",
    "children_name_2": "Kahiyang Ayu",
    "children_name_3": "Kaesang Pangarep",
    "children_name_4": "",
    "children_name_5": "",
    "children_name_6": "",
    "children_name_7": "",
    "children_name_8": "",
    "children_name_9": "",
    "children_name_10": "",
    "personal_interest": "",
    "education_detail_1": "Bachelor, Faculty of Forestry, Universitas Gadjah Mada ",
    "education_detail_2": "",
    "education_detail_3": "",
    "achievement": "10 Tokoh 2008, Tempo (2008), Bintang Jasa Utama (2011), Various others",
    "working_experience_1": "Staff, PT Kertas Kraft Aceh",
    "working_experience_2": "Owner, CV Rakabu",
    "working_experience_3": "Mayor of Surakarta (2005-2012)",
    "working_experience_4": "16th Governor of Jakarta (2012-2014))",
    "working_experience_5": "President of Indonesia (2014_Present)",
    "working_experience_6": "",
    "working_experience_7": "",
    "working_experience_8": "",
    "working_experience_9": "",
    "working_experience_10": "",
    "political_affiliation_1": "PDI-P",
    "political_affiliation_2": "",
    "political_affiliation_3": "",
    "political_affiliation_4": "",
    "other_organizational_affiliation_1": "",
    "other_organizational_affiliation_2": "",
    "other_organizational_affiliation_3": "",
    "other_organizational_affiliation_4": "",
    "personal_preferences": "",
    "stakeholder_responsibility": "",
    "internal_pertamina_contact": [
      {
        "id": "1",
        "name": "Elia Massa Manik",
        "devision": "-",
        "email": "elia.manik@pertamina.com",
        "phone_number": "081218194823"

      },
      {
        "id": "2",
        "name": "Ida Yusmiati",
        "devision": "Pertamina Hulu Mahakam",
        "email": "ida.yusmiati@phm.com",
        "phone_number": "081218194824"
      },
      {
        "id": "3",
        "name": "Syamsu Alam",
        "devision": "Upstream",
        "email": "syamsu.alam@pertamina.com",
        "phone_number": "081218194825"
      }
    ],
    "stakeholder_network": [
      {
        "id": "1",
        "name": "Andi R. Wijaya, Aspri",
        "organization_name": "-",
        "email": "andi.wijaya@gmail.com",
        "phone_number": "081110110815"
      },
      {
        "id": "2",
        "name": "Adi Dharma, TA",
        "organization_name": "-",
        "email": "adi.dharma@gmail.com",
        "phone_number": "08536784433"
      },
      {
        "id": "3",
        "name": "Aga Tahir, TA",
        "organization_name": "-",
        "email": "agatahir@gmail.com",
        "phone_number": "08178657112"
      }
    ],
    "latest_stakeholder_perception":[
      {
        "id": "1",
        "strategic_objective": "Mahakam Block Take Over",
        "perception": "Supportive"
      },
      {
        "id": "2",
        "strategic_objective": "Gas Pipe Transmission Development",
        "perception": "Less Supportive"
      },
      {
        "id": "3",
        "strategic_objective": "Gas Price < US$ 6/MMBTU",
        "perception": "Neutral"
      }
    ],
    "engagement_record": [
      {
        "id": "1",
        "date": "2-Aug-17",
        "topic": "Strategic Plan 2017 - achievements alignment with milestones",
        "engagement_type": "Meeting"
      },
      {
        "id": "2",
        "date": "27-Aug-17",
        "topic": "Oil and Gas Law Proposal - progress discussion",
        "engagement_type": "Meeting"
      },
      {
        "id": "3",
        "date": "13-Sep-17",
        "topic": "International M&A - oil and gas blocks acquisition targets discussion",
        "engagement_type": "Meeting"
      }
    ],
    "list_area_of_concern": [
      {
        "id": "1",
        "concern": "Project ownership scheme"
      },
      {
        "id": "2",
        "concern": "Fuel Price / Policy"
      },
      {
        "id": "3",
        "concern": "Financial Performance"
      }
    ],
    "closest_relative_contact": "",
    "strategic_objective": "",
    "perception": "",
    "topic": "",
    "engagement_type": "",
    "list_areas_of_concerns": "",
    "remarks": "",
    "list_source": [
      {
        "id": "1",
        "source": "https://en.wikipedia.org/wiki/Joko_Widodo"
      }
    ],
    "last_update": "14-May-17"
  },
  {
    "id": "2",
    "stamp_node":"#546650632",
    "stakeholder_type": "Local Government - Central",
    "type": "SMETS",
    "organization_name": "Indonesian President's Office",
    "individual_name": "Jusuf Kalla",
    "title_name": "Vice President of Indonesia",
    "birth_date": "15-May-42",
    "address": " Jl. Medan Merdeka Selatan No. 6 Jakarta Pusat",
    "phone_number": "+6221 3866676",
    "email": "",
    "spouse_name": "Mufidah Miad Saad",
    "children_name_1": "Muchlisa Kalla",
    "children_name_2": "Muswira Kalla",
    "children_name_3": "Imelda Kalla",
    "children_name_4": "Solichin Kalla",
    "children_name_5": "Chaerani Kalla",
    "children_name_6": "",
    "children_name_7": "",
    "children_name_8": "",
    "children_name_9": "",
    "children_name_10": "",
    "personal_interest": "",
    "education_detail_1": "Bachelor, Faculty of Economics, Universitas Hasanuddin",
    "education_detail_2": "Master, The European Institute of Business Administration (Now INSEAD)",
    "education_detail_3": "",
    "achievement": "Budaya Akademik Islami Award, Universitas Sultan Agung Semarang, Tokoh Perdamaian Award, Forum Pemuda Dunia untuk Perdamaian di Maluku (2011), Dwidjosowojo Award, Asuransi Jiwa Bersama Bumiputera",
    "working_experience_1": "President Director/President Commissioner, Various Business",
    "working_experience_2": "Minister of Trade and Industry (1999-2000)",
    "working_experience_3": "Coordinating Minister for People's Welfare (2001-2004)",
    "working_experience_4": "Vice President of Indonesia (2004-2009,2014-Present)",
    "working_experience_5": "",
    "working_experience_6": "",
    "working_experience_7": "",
    "working_experience_8": "",
    "working_experience_9": "",
    "working_experience_10": "",
    "political_affiliation_1": "Golongan Karya",
    "political_affiliation_2": "",
    "political_affiliation_3": "",
    "political_affiliation_4": "",
    "other_organizational_affiliation_1": "",
    "other_organizational_affiliation_2": "",
    "other_organizational_affiliation_3": "",
    "other_organizational_affiliation_4": "",
    "personal_preferences": "",
    "stakeholder_responsibility": "",
    "internal_pertamina_contact": [
      {
        "id": "1",
        "name": "Elia Massa Manik",
        "devision": "-",
        "email": "elia.manik@pertamina.com",
        "phone_number": "081218194823"

      },
      {
        "id": "2",
        "name": "Ida Yusmiati",
        "devision": "Pertamina Hulu Mahakam",
        "email": "ida.yusmiati@phm.com",
        "phone_number": "081218194824"
      },
      {
        "id": "3",
        "name": "Syamsu Alam",
        "devision": "Upstream",
        "email": "syamsu.alam@pertamina.com",
        "phone_number": "081218194825"
      }
    ],
    "stakeholder_network": [
      {
        "id": "1",
        "name": "Tri Hidayat, TA",
        "organization_name": "-",
        "email": "tri.hidayat@gmail.com",
        "phone_number": "08118303169"
      },
      {
        "id": "2",
        "name": "Iwan, TA",
        "organization_name": "-",
        "email": "iwan@gmail.com",
        "phone_number": "081229090020"
      },
      {
        "id": "3",
        "name": "Bowo Supardi, TA",
        "organization_name": "-",
        "email": "bowo.supardi@gmail.com",
        "phone_number": "08172342121"
      }
    ],
    "latest_stakeholder_perception":[
      {
        "id": "1",
        "strategic_objective": "Mahakam Block Take Over",
        "perception": "Supportive"
      },
      {
        "id": "2",
        "strategic_objective": "Effective Utilization of CSR Fund",
        "perception": "Neutral"
      },
      {
        "id": "3",
        "strategic_objective": "Good Corporate Governance",
        "perception": "Supportive"
      }
    ],
    "engagement_record": [
      {
        "id": "1",
        "date": "2-Aug-17",
        "topic": "Strategic Plan 2017 - achievements alignment with milestones",
        "engagement_type": "Meeting"
      },
      {
        "id": "2",
        "date": "27-Aug-17",
        "topic": "Oil and Gas Law Proposal - progress discussion",
        "engagement_type": "Meeting"
      },
      {
        "id": "3",
        "date": "13-Sep-17",
        "topic": "International M&A - oil and gas blocks acquisition targets discussion",
        "engagement_type": "Meeting"
      }
    ],
    "list_area_of_concern": [
      {
        "id": "1",
        "concern": "Total contract extension"
      },
      {
        "id": "2",
        "concern": "Ownership transition process"
      },
      {
        "id": "3",
        "concern": "Fuel Price / Policy"
      }
    ],
    "closest_relative_contact": "",
    "strategic_objective": "",
    "perception": "",
    "topic": "",
    "engagement_type": "",
    "list_areas_of_concerns": "",
    "remarks": "",
    "list_source": [
      {
        "id": "1",
        "source": "https://en.wikipedia.org/wiki/Jusuf_Kalla"
      }
    ],
    "last_update": "14-May-17"
  },
  {
    "id": "4",
    "stamp_node":"#546650632",
    "stakeholder_type": "Local Government - Central",
    "type": "SMETS",
    "organization_name": "Coordinating Ministry of Maritime Affairs and Natural Resources of Indonesia",
    "individual_name": "Luhut Binsar Pandjaitan",
    "title_name": "Coordinating Ministry for Maritime Affairs and Natural Resources",
    "birth_date": "28-Sep-47",
    "address": "Gedung BPPT 1 Lantai 3, Jalan M.H. Thamrin No. 8, Menteng, RT.2/RW.1, Kb. Sirih, Menteng, Kota Jakarta Pusat, Daerah Khusus Ibukota Jakarta 10340",
    "phone_number": "+6221 23951100",
    "email": "sekretariat@maritim.go.id",
    "spouse_name": "Devi Simatupang",
    "children_name_1": "Paulina Panjaitan",
    "children_name_2": "David Panjaitan",
    "children_name_3": "Paulus Panjaitan",
    "children_name_4": "Kerri Panjaitan",
    "children_name_5": "",
    "children_name_6": "",
    "children_name_7": "",
    "children_name_8": "",
    "children_name_9": "",
    "children_name_10": "",
    "personal_interest": "",
    "education_detail_1": "Military Academy, National Militery Academy",
    "education_detail_2": "Master, Public Administration Department, George Washington University",
    "education_detail_3": "",
    "achievement": "Various Military Awards, Ernst & Young Entrepreneur of the Year (2011), Award from National Sport Committee (2006)",
    "working_experience_1": "Ambassador of Indonesia to Singapore (1999-2000)",
    "working_experience_2": "Minister of Trade and Industry (2000-2001)",
    "working_experience_3": "Chief of Staff to President of Indonesia (2014-2015)",
    "working_experience_4": "Coordinating Minister for Political, Legal, and Security Affairs (2015-2016)",
    "working_experience_5": " Coordinating Minister for Maritime Affairs (2016-Present)",
    "working_experience_6": "",
    "working_experience_7": "",
    "working_experience_8": "",
    "working_experience_9": "",
    "working_experience_10": "",
    "political_affiliation_1": "Golongan Karya",
    "political_affiliation_2": "",
    "political_affiliation_3": "",
    "political_affiliation_4": "",
    "other_organizational_affiliation_1": "",
    "other_organizational_affiliation_2": "",
    "other_organizational_affiliation_3": "",
    "other_organizational_affiliation_4": "",
    "personal_preferences": "",
    "stakeholder_responsibility": "",
    "internal_pertamina_contact": [],
    "stakeholder_network": [],
    "latest_stakeholder_perception":[],
    "engagement_record": [],
    "list_area_of_concern": [],
    "closest_relative_contact": "",
    "strategic_objective": "",
    "perception": "",
    "topic": "",
    "engagement_type": "",
    "list_areas_of_concerns": "",
    "remarks": "",
    "list_source": [
      {
        "id": "1",
        "source": "https://id.wikipedia.org/wiki/Luhut_Binsar_Panjaitan"
      }
    ],
    "last_update": "14-May-17"
  },
  {
    "id": "5",
    "stamp_node":"#546650632",
    "stakeholder_type": "Local Government - Central",
    "type": "SMETS",
    "organization_name": "Ministry of Energy and Mineral Resources of Indonesia",
    "individual_name": "Ignasius Jonan",
    "title_name": "Minister of Energy and Mineral Resources",
    "birth_date": "21-Jun-63",
    "address": "Jl. Medan Merdeka Sel. No.18, RT.11/RW.2, Gambir, Kota Jakarta Pusat, Daerah Khusus Ibukota Jakarta 10110",
    "phone_number": "+6221 3519881",
    "email": "helpdesk.lpse@esdm.go.id",
    "spouse_name": "Ratnawati Jonan",
    "children_name_1": "Monica",
    "children_name_2": "Caterine",
    "children_name_3": "",
    "children_name_4": "",
    "children_name_5": "",
    "children_name_6": "",
    "children_name_7": "",
    "children_name_8": "",
    "children_name_9": "",
    "children_name_10": "",
    "personal_interest": "",
    "education_detail_1": "Bachelor, Faculty of Economics and Business, Universitas Airlangga",
    "education_detail_2": "Degree from Fletcher School, Tufts University",
    "education_detail_3": "",
    "achievement": "",
    "working_experience_1": "President Director, PT Kereta Api Indonesia (2009-2014)",
    "working_experience_2": "Ministry of Transportation, Indonesia Ministry (2014-2016)",
    "working_experience_3": "Ministry of Energy and Mineral Resources, Indonesia Ministry (2016-Present)",
    "working_experience_4": "",
    "working_experience_5": "",
    "working_experience_6": "",
    "working_experience_7": "",
    "working_experience_8": "",
    "working_experience_9": "",
    "working_experience_10": "",
    "political_affiliation_1": "Independent",
    "political_affiliation_2": "",
    "political_affiliation_3": "",
    "political_affiliation_4": "",
    "other_organizational_affiliation_1": "",
    "other_organizational_affiliation_2": "",
    "other_organizational_affiliation_3": "",
    "other_organizational_affiliation_4": "",
    "personal_preferences": "",
    "stakeholder_responsibility": "",
    "internal_pertamina_contact": [
      {
        "id": "1",
        "name": "Elia Massa Manik",
        "devision": "-",
        "email": "elia.manik@pertamina.com",
        "phone_number": "081218194823"

      },
      {
        "id": "2",
        "name": "Ida Yusmiati",
        "devision": "Pertamina Hulu Mahakam",
        "email": "ida.yusmiati@phm.com",
        "phone_number": "081218194824"
      },
      {
        "id": "3",
        "name": "Syamsu Alam",
        "devision": "Upstream",
        "email": "syamsu.alam@pertamina.com",
        "phone_number": "081218194825"
      }
    ],
    "stakeholder_network": [
      {
        "id": "1",
        "name": "Sherly, Aspri",
        "organization_name": "-",
        "email": "sherly@gmail.com",
        "phone_number": "08118303169"
      },
      {
        "id": "2",
        "name": "Yusak Farhan, TA",
        "organization_name": "-",
        "email": "yusak.farhan@gmail.com",
        "phone_number": "0817781704"
      },
      {
        "id": "3",
        "name": "Kumala Adi, Aspri",
        "organization_name": "-",
        "email": "kumalaadi@gmail.com",
        "phone_number": "0816456433"
      }
    ],
    "latest_stakeholder_perception":[
      {
        "id": "1",
        "strategic_objective": "Mahakam Block Take Over",
        "perception": "Neutral"
      },
      {
        "id": "2",
        "strategic_objective": "Maintaining National Energy Security",
        "perception": "Supportive"
      },
      {
        "id": "3",
        "strategic_objective": "Ensuring Good Corporate Governance",
        "perception": "Less Supportive"
      }
    ],
    "engagement_record": [
      {
        "id": "1",
        "date": "02-Jul-17",
        "topic": "Mahakam Block Takeover - achievements alignment with milestones",
        "engagement_type": "Monthly Meeting"
      },
      {
        "id": "2",
        "date": "21-Okt-17",
        "topic": "Mahakam Block Takeover - robust next steps preparation",
        "engagement_type": "Meeting"
      },
      {
        "id": "3",
        "date": "21-Okt-17",
        "topic": "Mahakam Block Takeover - robust next steps preparation",
        "engagement_type": "Meeting"
      }
    ],
    "list_area_of_concern": [
      {
        "id": "1",
        "concern": "Project ownership scheme"
      },
      {
        "id": "2",
        "concern": "Production efficiency"
      },
      {
        "id": "3",
        "concern": "Financing / Funding Plan"
      }
    ],
    "closest_relative_contact": "",
    "strategic_objective": "",
    "perception": "",
    "topic": "",
    "engagement_type": "",
    "list_areas_of_concerns": "",
    "remarks": "",
    "list_source": [
      {
        "id": "1",
        "source": "https://en.wikipedia.org/wiki/Ignasius_Jonan"
      }
    ],
    "last_update": "14-May-17"
  },
  {
    "id": "6",
    "stamp_node":"#546650632",
    "stakeholder_type": "Local Government - Central",
    "type": "SMETS",
    "organization_name": "Ministry of Energy and Mineral Resources of Indonesia",
    "individual_name": "Arcandra Tahar",
    "title_name": "Vice Minister of Energy and Mineral Resources",
    "birth_date": "10-Oct-70",
    "address": "Jl. Medan Merdeka Sel. No.18, RT.11/RW.2, Gambir, Kota Jakarta Pusat, Daerah Khusus Ibukota Jakarta 10110",
    "phone_number": "+6221 3519881",
    "email": "helpdesk.lpse@esdm.go.id",
    "spouse_name": "Fauline Y. Thahar",
    "children_name_1": "2 children, Unknown names",
    "children_name_2": "",
    "children_name_3": "",
    "children_name_4": "",
    "children_name_5": "",
    "children_name_6": "",
    "children_name_7": "",
    "children_name_8": "",
    "children_name_9": "",
    "children_name_10": "",
    "personal_interest": "",
    "education_detail_1": "Bachelor, Mechanical Engineering Department, Institut Teknologi Bandung (1989-1994)",
    "education_detail_2": "Master, Ocean Engineering, Texas A&M University (1996-1998)",
    "education_detail_3": "Doctorate, Ocean Engineering, Texas A&M University (1998-2001)",
    "achievement": "",
    "working_experience_1": "Research Assistant, Offshore Technology Research Center (1997-2001)",
    "working_experience_2": "Technical Advisor, Noble Denton",
    "working_experience_3": "Researcher, Technip Offshore (2001-2006)",
    "working_experience_4": "Hydrodynamics Lead, FloaTec LLC (2006-2007)",
    "working_experience_5": "Principal/President, Asia Pacific AGR Deepwater Development System (2007-2009)",
    "working_experience_6": "Principal, Horton Wison Deepwater (2009-2013)",
    "working_experience_7": "President, Petroneering (2013-2016)",
    "working_experience_8": "Minister of Energy and Mineral Resources of Indonesia (2016)",
    "working_experience_9": "Vice Minister of Energy and Mineral Resources of Indonesia (2016-Present)",
    "working_experience_10": "",
    "political_affiliation_1": "Independent",
    "political_affiliation_2": "",
    "political_affiliation_3": "",
    "political_affiliation_4": "",
    "other_organizational_affiliation_1": "",
    "other_organizational_affiliation_2": "",
    "other_organizational_affiliation_3": "",
    "other_organizational_affiliation_4": "",
    "personal_preferences": "",
    "stakeholder_responsibility": "",
    "internal_pertamina_contact": [
      {
        "id": "1",
        "name": "Elia Massa Manik",
        "devision": "-",
        "email": "elia.manik@pertamina.com",
        "phone_number": "081218194823"

      },
      {
        "id": "2",
        "name": "Ida Yusmiati",
        "devision": "Pertamina Hulu Mahakam",
        "email": "ida.yusmiati@phm.com",
        "phone_number": "081218194824"
      },
      {
        "id": "3",
        "name": "Syamsu Alam",
        "devision": "Upstream",
        "email": "syamsu.alam@pertamina.com",
        "phone_number": "081218194825"
      }
    ],
    "stakeholder_network": [
      {
        "id": "1",
        "name": "Steffanie, Aspri",
        "organization_name": "-",
        "email": "steffanie@gmail.com",
        "phone_number": "08997420842"
      },
      {
        "id": "2",
        "name": "Vincentia, TA",
        "organization_name": "-",
        "email": "vincentia@gmail.com",
        "phone_number": "081397861584"
      },
      {
        "id": "3",
        "name": "Aga Tahir, TA",
        "organization_name": "-",
        "email": "agatahir@gmail.com",
        "phone_number": "08178657112"
      }
    ],
    "latest_stakeholder_perception":[
      {
        "id": "1",
        "strategic_objective": "Mahakam Block Take Over",
        "perception": "Neutral"
      },
      {
        "id": "2",
        "strategic_objective": "Gas Pipe Transmission Development",
        "perception": "Less Supportive"
      },
      {
        "id": "3",
        "strategic_objective": "Achieving National Energy Mix Target",
        "perception": "Neutral"
      }
    ],
    "engagement_record": [
      {
        "id": "1",
        "date": "02-Jul-17",
        "topic": "Mahakam Block Takeover - achievements alignment with milestones",
        "engagement_type": "Monthly Meeting"
      },
      {
        "id": "2",
        "date": "21-Okt-17",
        "topic": "Mahakam Block Takeover - robust next steps preparation",
        "engagement_type": "Meeting"
      },
      {
        "id": "3",
        "date": "21-Okt-17",
        "topic": "Mahakam Block Takeover - robust next steps preparation",
        "engagement_type": "Meeting"
      }
    ],
    "list_area_of_concern": [
      {
        "id": "1",
        "concern": "Project ownership scheme"
      },
      {
        "id": "2",
        "concern": "Financing / Funding Plan"
      },
      {
        "id": "3",
        "concern": "Financial Performance"
      }
    ],
    "closest_relative_contact": "",
    "strategic_objective": "",
    "perception": "",
    "topic": "",
    "engagement_type": "",
    "list_areas_of_concerns": "",
    "remarks": "",
    "list_source": [
      {
        "id": "1",
        "source": "https://id.wikipedia.org/wiki/Arcandra_Tahar"
      }
    ],
    "last_update": "14-May-17"
  },
  {
    "id": "15",
    "stamp_node":"#546650632",
    "stakeholder_type": "Local Government - Central",
    "type": "SMETS",
    "organization_name": "Ministry of Transportation of Indonesia",
    "individual_name": "Budi Karya Sumadi",
    "title_name": "Minister of Transportation",
    "birth_date": "18-Dec-56",
    "address": "Jl. Medan Merdeka Barat No.8, RT.2/RW.3, Gambir, Kota Jakarta Pusat, Daerah Khusus Ibukota Jakarta 10110",
    "phone_number": "(021) 3852649",
    "email": "",
    "spouse_name": "Endang Sri Hariyatie",
    "children_name_1": "",
    "children_name_2": "",
    "children_name_3": "",
    "children_name_4": "",
    "children_name_5": "",
    "children_name_6": "",
    "children_name_7": "",
    "children_name_8": "",
    "children_name_9": "",
    "children_name_10": "",
    "personal_interest": "",
    "education_detail_1": "Degree from Department of Architecture, Universitas Gadjah Mada",
    "education_detail_2": "",
    "education_detail_3": "",
    "achievement": "",
    "working_experience_1": "President Director of PT Wisma Jaya Artek (1996-2001)",
    "working_experience_2": "Director of Finance of PT Pembangunan Jaya Ancol (2001-2004)",
    "working_experience_3": "Director of Finance PT TIJA",
    "working_experience_4": "Commissioner, PT Philindo",
    "working_experience_5": "President Director of PT Pembangunan Jaya Ancol (2004-2013)",
    "working_experience_6": "President Director of PT Jakarta Propertindo (2004-2013)",
    "working_experience_7": "President Director of Angkasa Pura II (2015-2016)",
    "working_experience_8": "Minister of Transportation of Indonesia (2016-Present)",
    "working_experience_9": "",
    "working_experience_10": "",
    "political_affiliation_1": "",
    "political_affiliation_2": "",
    "political_affiliation_3": "",
    "political_affiliation_4": "",
    "other_organizational_affiliation_1": "",
    "other_organizational_affiliation_2": "",
    "other_organizational_affiliation_3": "",
    "other_organizational_affiliation_4": "",
    "personal_preferences": "",
    "stakeholder_responsibility": "",
    "internal_pertamina_contact": [],
    "stakeholder_network": [],
    "latest_stakeholder_perception": [],
    "engagement_record": [],
    "list_area_of_concern": [],
    "closest_relative_contact": "",
    "strategic_objective": "",
    "perception": "",
    "topic": "",
    "engagement_type": "",
    "list_areas_of_concerns": "",
    "remarks": "",
    "list_source": [
      {
        "id": "1",
        "source": "https://id.wikipedia.org/wiki/Budi_Karya_Sumadi"
      }
    ],
    "last_update": "23-May-17"
  },
  {
    "id": "24",
    "stamp_node":"#546650632",
    "stakeholder_type": "Local Government - Central",
    "type": "SMETS",
    "organization_name": "Special Task Force for Upstream Oil and Gas Business Activities (SKK Migas)",
    "individual_name": "Amien Sunaryadi",
    "title_name": "Chairman of Special Task Force for Upstream Oil and Gas Business Activities (SKK Migas)",
    "birth_date": "23-Jan-60",
    "address": "Wisma Mulia Lantai 35, Jl. Gatot Subroto Kav. 42, RT.3/RW.2, Kuningan Bar., Mampang Prpt., Kota Jakarta Selatan, Daerah Khusus Ibukota Jakarta 12710",
    "phone_number": "+6221 29241607",
    "email": "hupmas@skkmigas.go.id",
    "spouse_name": "",
    "children_name_1": "",
    "children_name_2": "",
    "children_name_3": "",
    "children_name_4": "",
    "children_name_5": "",
    "children_name_6": "",
    "children_name_7": "",
    "children_name_8": "",
    "children_name_9": "",
    "children_name_10": "",
    "personal_interest": "",
    "education_detail_1": "Bachelor, Sekolah Tinggi Akuntansi Negara",
    "education_detail_2": "Degree from College of Business Administration, Georgia State University",
    "education_detail_3": "",
    "achievement": "",
    "working_experience_1": "Vice Chairman, Corruption Eradication Commission (2003-2007)",
    "working_experience_2": "Senior Governance and Anti Corruption Office, World Bank",
    "working_experience_3": "Partner, Fraud Investigation and Dispute Services, Ernst and Young",
    "working_experience_4": "Head of Special Task Force for Upstream Oil and Gas Business Activities (SKK Migas) (2014-Present)",
    "working_experience_5": "",
    "working_experience_6": "",
    "working_experience_7": "",
    "working_experience_8": "",
    "working_experience_9": "",
    "working_experience_10": "",
    "political_affiliation_1": "",
    "political_affiliation_2": "",
    "political_affiliation_3": "",
    "political_affiliation_4": "",
    "other_organizational_affiliation_1": "IAI",
    "other_organizational_affiliation_2": "",
    "other_organizational_affiliation_3": "",
    "other_organizational_affiliation_4": "",
    "personal_preferences": "",
    "stakeholder_responsibility": "",
    "internal_pertamina_contact": [
      {
        "id": "1",
        "name": "Bayu Wijaya",
        "devision": "Upstream",
        "email": "bayu.wijaya@pertamina.com",
        "phone_number": "081271817890"

      },
      {
        "id": "2",
        "name": "Henry Lapo",
        "devision": "Corporate Secretary",
        "email": "henry.lapo@pertamina.com",
        "phone_number": "08121815454"
      },
      {
        "id": "3",
        "name": "Ali Sabana",
        "devision": "Corporate Secretary",
        "email": "ali.sabana@pertamina.com",
        "phone_number": "081218196564"
      }
    ],
    "stakeholder_network": [
      {
        "id": "1",
        "name": "Andi R. Wijaya, Aspri",
        "organization_name": "-",
        "email": "andi.wijaya@gmail.com",
        "phone_number": "08155144999"
      },
      {
        "id": "2",
        "name": "Dyah, Aspri",
        "organization_name": "-",
        "email": "dyah@gmail.com",
        "phone_number": "081310961029"
      },
      {
        "id": "3",
        "name": "Kumala Adi, Aspri",
        "organization_name": "-",
        "email": "kumalaadi@gmail.com",
        "phone_number": "0816456437"
      }
    ],
    "latest_stakeholder_perception":[
      {
        "id": "1",
        "strategic_objective": "Mahakam Block Take Over",
        "perception": "Less Supportive"
      },
      {
        "id": "2",
        "strategic_objective": "Maintaining National Energy Security",
        "perception": "Supportive"
      },
      {
        "id": "3",
        "strategic_objective": "Gas Price < US$ 6/MMBTU",
        "perception": "Less Supportive"
      }
    ],
    "engagement_record": [
      {
        "id": "1",
        "date": "08-Jul-17",
        "topic": "Mahakam Block Takeover - urgent request preparation",
        "engagement_type": "Monthly Meeting"
      },
      {
        "id": "2",
        "date": "17-Sep-17",
        "topic": "Strategic Plan 2017 - challenges and achievements encountered by Pertamina",
        "engagement_type": "Focus Group Discussion"
      },
      {
        "id": "3",
        "date": "08-Okt-17",
        "topic": "International M&A - oil and gas blocks acquisition targets discussion",
        "engagement_type": "Meeting"
      }
    ],
    "list_area_of_concern": [
      {
        "id": "1",
        "concern": "Value-added Tax (VAT)"
      },
      {
        "id": "2",
        "concern": "Production efficiency"
      },
      {
        "id": "3",
        "concern": "Fuel Price / Policy"
      }
    ],
    "closest_relative_contact": "",
    "strategic_objective": "",
    "perception": "",
    "topic": "",
    "engagement_type": "",
    "list_areas_of_concerns": "",
    "remarks": "",
    "list_source": [
      {
        "id": "1",
        "source": "https://id.wikipedia.org/wiki/Amien_Sunaryadi"
      }
    ],
    "last_update": "23-Mei-17"
  },
  {
    "id": "25",
    "stamp_node":"#546650632",
    "stakeholder_type": "Local Government - Central",
    "type": "SMETS",
    "organization_name": "Special Task Force for Upstream Oil and Gas Business Activities (SKK Migas)",
    "individual_name": "Rudi Rubiandini",
    "title_name": "Former Chairman of Special Task Force for Upstream Oil and Gas Business Activities (SKK Migas)",
    "birth_date": "9-Feb-62",
    "address": "",
    "phone_number": "",
    "email": "",
    "spouse_name": "Elin Herliana",
    "children_name_1": "4 children, unknown names",
    "children_name_2": "",
    "children_name_3": "",
    "children_name_4": "",
    "children_name_5": "",
    "children_name_6": "",
    "children_name_7": "",
    "children_name_8": "",
    "children_name_9": "",
    "children_name_10": "",
    "personal_interest": "",
    "education_detail_1": "Bachelor, Oil Engineering, Institut Teknologi Bandung",
    "education_detail_2": "Doctorate, TU Clausthal",
    "education_detail_3": "",
    "achievement": "",
    "working_experience_1": "Director of Operation and Finance, PT LAPI ITB (2007-2010)",
    "working_experience_2": "Expert Advisor to Chairman of Oil and Gas Authority Agency (BPMIGAS) (2007-2010)",
    "working_experience_3": "Vice Minister of Energy and Mineral Resources (2012-2013)",
    "working_experience_4": "Chairman of Special Task Force for Upstream Oil and Gas Business Activities (SKK Migas) (2013)",
    "working_experience_5": "",
    "working_experience_6": "",
    "working_experience_7": "",
    "working_experience_8": "",
    "working_experience_9": "",
    "working_experience_10": "",
    "political_affiliation_1": "",
    "political_affiliation_2": "",
    "political_affiliation_3": "",
    "political_affiliation_4": "",
    "other_organizational_affiliation_1": "",
    "other_organizational_affiliation_2": "",
    "other_organizational_affiliation_3": "",
    "other_organizational_affiliation_4": "",
    "personal_preferences": "",
    "stakeholder_responsibility": "",
    "internal_pertamina_contact": [],
    "stakeholder_network": [],
    "latest_stakeholder_perception": [],
    "engagement_record": [],
    "list_area_of_concern": [],
    "closest_relative_contact": "",
    "strategic_objective": "",
    "perception": "",
    "topic": "",
    "engagement_type": "",
    "list_areas_of_concerns": "",
    "remarks": "",
    "list_source": [
      {
        "id": "1",
        "source": "https://id.wikipedia.org/wiki/Rudi_Rubiandini"
      }
    ],
    "last_update": "24-May-17"
  }
]