[
	{
		"id": "1",
		"so_name": "Mahakam Block Takeover",
		"so_goal": "To maintain stakeholder expectations on achievement of milestones or targets of operational processes within takeover period.",
		"so_description": "This corporate agenda ensures the readiness of Pertamina to takeover Mahakam block from TEPI with four overall objectives as follows:<br/><ul><li>To aim for smooth transition process from TEPI to PHM</li><li>To maintain current production level</li><li>To improve company and national's capability in complex assets</li><li>To guard company's and nation's reputation in the O&G industry</li></ul>",
		"pic": [
			{
				"id": "1",
				"name": "Denie S Tampubolon",
				"title": "SVP Upstream Business Development"
			}
		],
		"internal_smes": [
			{
				"id": "100",
				"name": "Zulkha Arfat",
				"title": "Director of Upstream"
			},
			{
				"id": "2",
				"name": "Ida Yusmiati",
				"title": "Director of PHM"
			},
			{
				"id": "3",
				"name": "Judha Sumarianto",
				"title": "Head of TPPM"
			},
			{
				"id": "4",
				"name": "Boyke Pardede",
				"title": "Advisor of TPPM"
			},
			{
				"id": "5",
				"name": "Maryulis",
				"title": "PMO of TPPM"
			},
			{
				"id": "6",
				"name": "Arfat Zulkhar",
				"title": "Manager Business Initiatives UBD"
			},
			{
				"id": "7",
				"name": "Antonius B Ekoprasetyo",
				"title": "Sr Analyst Technical Evaluation UBD"
			}
		],
		"prioritization_matrix": [
			{
				"id": "1",
				"name": "Ministry of Energy & Mineral Resources",
				"row": "1",
				"col": "3",
				"q1": "full",
				"q2": "full",
				"q3": "full",
				"q4": "full"
			},
			{
				"id": "2",
				"name": "Ministry of Finance",
				"row": "1",
				"col": "2",
				"q1": "half",
				"q2": "full",
				"q3": "full",
				"q4": "full"				
			},
			{
				"id": "3",
				"name": "Media",
				"row": "1",
				"col": "1",
				"q1": "full",
				"q2": "full",
				"q3": "full",
				"q4": "full"
			},
			{
				"id": "4",
				"name": "SKK Migas",
				"row": "2",
				"col": "3",
				"q1": "full",
				"q2": "full",
				"q3": "full",
				"q4": "full"
			},
			{
				"id": "5",
				"name": "Dirjen Migas",
				"row": "2",
				"col": "3",
				"q1": "full",
				"q2": "full",
				"q3": "full",
				"q4": "full"
			},
			{
				"id": "6",
				"name": "Menkumham",
				"row": "3",
				"col": "3",
				"q1": "half",
				"q2": "half",
				"q3": "half",
				"q4": "full"
			},
			{
				"id": "7",
				"name": "Ministry of SOE",
				"row": "3",
				"col": "3",
				"q1": "half",
				"q2": "half",
				"q3": "half",
				"q4": "half"
			},
			{
				"id": "8",
				"name": "TEPI",
				"row": "2",
				"col": "2",
				"q1": "empty",
				"q2": "empty",
				"q3": "half",
				"q4": "half"
			},
			{
				"id": "9",
				"name": "Local Government (Kutai Kertanegara)",
				"row": "2",
				"col": "2",
				"q1": "half",
				"q2": "half",
				"q3": "full",
				"q4": "full"
			},
			{
				"id": "10",
				"name": "NGOs",
				"row": "2",
				"col": "3",
				"q1": "half",
				"q2": "half",
				"q3": "full",
				"q4": "full"
			}
		],
		"engagement_timeline": [
            {
                "id": "1",
                "objective": "Alignment between achievements and milestones",
                "organization": "Ministry of Energy & Mineral Resources",
                "pic": "Ida Yusmiati",
                "time": "July 2017",
                "type": "Monthly Meeting"
            },
			{
				"id": "2",
				"organization": "SKK Migas",
				"time": "July 2017",
                "type": "Monthly Meeting",
                "pic": "Judha Sumarianto",
                "objective": "Get prepared for urgent request for SKK Migas on takeover process"
			},
			{
				"id": "3",
				"organization": "TEPI",
				"time": "July 2017",
                "type": "Monthly Meeting",
                "pic": "Maryulis",
                "objective": "Agreement on existing contractor's participating interest amount"
			},
			{
				"id": "4",
				"organization": "Media",
				"time": "Aug 2017",
                "type": "Media Briefing",
                "pic": "Ida Yusmiati",
                "objective": "Progress update of milestones"
			},
			{
				"id": "5",
				"organization": "Ministry of Finance",
				"time": "Aug 2017",
                "type": "Meeting",
                "pic": "Arfat Zulkhar",
                "objective": "Alignment on plans for future production and expected contribution towards APBN"
			},
			{
				"id": "6",
				"organization": "Ministry of SOE",
				"time": "Aug 2017",
                "type": "Meeting",
                "pic": "Maryulis",
                "objective": "Alignment between achievements and milestones"
			},
			{
				"id": "7",
				"organization": "Ministry of Law and Human Rights",
				"time": "Sep 2017",
                "type": "Meeting",
                "pic": "Judha Sumarianto",
                "objective": "Solved legal issues related to takeover process"
			},
			{
				"id": "8",
				"organization": "Directorate General of Oil and Gas",
				"time": "Sep 2017",
                "type": "Meeting",
                "pic": "Antonius B Ekoprasetyo",
                "objective": "Post-workshop challenges identification and robust next steps preparation"
			},
			{
				"id": "9",
				"organization": "Local Government (Kutai Kertanegara)",
				"time": "Oct 2017",
                "type": "Forum Group Discussion",
                "pic": "Ida Yusmiati",
                "objective": "Alignment on plans for future production and expected contribution towards the region"
			},
			{
				"id": "10",
				"organization": "Ministry of Energy & Mineral Resources",
				"time": "Oct 2017",
                "type": "Meeting",
                "pic": "Maryulis",
                "objective": "Robust next steps preparation"
			},
            {
                "id": "11",
                "objective": "Briefing of challenges and achievements encountered by Pertamina in transition",
                "organization": "Media",
                "pic": "Boyke Pardede",
                "time": "Nov 2017",
                "type": "Meeting"
            },
			{
				"id": "12",
				"organization": "Media",
                "time": "Nov 2017",
                "type": "Meeting",
                "pic": "Arfat Zulkhar",
                "objective": "Briefing of Mahakam Block future plans"
			}
		]
	}
]